<?xml version="1.0" encoding="utf-8"?>
<!-- Generator: Adobe Illustrator 17.1.0, SVG Export Plug-In . SVG Version: 6.00 Build 0)  -->
<!DOCTYPE svg PUBLIC "-//W3C//DTD SVG 1.1//EN" "http://www.w3.org/Graphics/SVG/1.1/DTD/svg11.dtd">
<svg version="1.1" id="Layer_1" xmlns="http://www.w3.org/2000/svg" xmlns:xlink="http://www.w3.org/1999/xlink" x="0px" y="0px"
	 viewBox="0 0 193.7 41.6" enable-background="new 0 0 193.7 41.6" xml:space="preserve">
<rect x="2.5" y="8.8" fill="none" width="191.2" height="24"/>
<text transform="matrix(1 0 0 1 4.3203 30.6321)" fill="#00AEEF" font-family="'Times-Roman'" font-size="32">YOUR LOGO</text>
</svg>
