# URI;Name;Definition;Parent
0;GF-Digital;GF-Digital;
1;GF-Diapositivo HR;GF-Diapositivo HR;
2;GF-Diapositivo LR;GF-Diapositivo LR;
3;GF-Negativo;GF-Negativo;
4;GF-Medio Formato;GF-Medio Formato;
5;GF-Panoramico;GF-Panoramico;
6;Shutterstock;Shutterstock;
7;iStockphoto;iStockphoto;
8;Carlos Moura;Carlos Moura;
9;Corel;Corel;
10;Photodisc;Photodisc;
11;Photothema;Photothema;
12;All out Yesterdays;All out Yesterdays;
13;BananaStock;BananaStock;
14;Brand X Pictures;Brand X Pictures;
15;Corbis;Corbis;
16;Digital Vision;Digital Vision;
17;EyeWire;EyeWire;
18;Focoltone;Focoltone;
19;Goodshoot;Goodshoot;
20;Image100;Image100;
21;ImageShop;ImageShop;
22;ImageSource;ImageSource;
23;Itstock free;Itstock free;
24;John Foxx;John Foxx;
25;LifeART;LifeART;
26;MedioImages;MedioImages;
27;Paper Series;Paper Series;
28;PhotoAlto;PhotoAlto;
29;Photos.com;Photos.com;
30;Melba;Melba;
31;PhotoSpin;PhotoSpin;
32;Pixland;Pixland;
33;Planetary Visions;Planetary Visions;
34;Purestock;Purestock;
35;Rubberball;Rubberball;
36;Scorpius;Scorpius;
37;Stockbyte;Stockbyte;
38;Stockdisc;Stockdisc;
39;The Illustrated Londen News;The Illustrated Londen News;
40;Trick of Light;Trick of Light;
41;Volt-Age;Volt-Age;
42;Imagens Diversas;Imagens Diversas;
43;Stockxpert.com;Stockxpert.com;
44;1000bananas;1000bananas;
45;Desenhos Antigos;Desenhos Antigos;
46;Flat Earth;Flat Earth;
47;Luisa Ferreira;Luisa Ferreira;
48;Rui Sousa;Rui Sousa;
49;Image State;Image State;
50;Graciete Texeira;Graciete Texeira;
51;Manuel Rangel;Manuel Rangel;
52;Imagens exclusivas de obras;Imagens exclusivas de obras;
53;Inforpress;Inforpress;
54;GF-Imagens Exclusivas;GF-Imagens Exclusivas;
55;Ingimage;Ingimage;
56;Thinkstock;Thinkstock;
57;Depositphotos;Depositphotos;
58;Imagens de Arquivo;Imagens de Arquivo;
59;Valores Monetarios;Valores Monetarios;
60;LifeART;LifeART;
61;LifeART - Super Anatomy 1;LifeART - Super Anatomy 1;
62;LifeART - Super Anatomy 2;LifeART - Super Anatomy 2;
63;LifeART - Super Anatomy 3;LifeART - Super Anatomy 3;
64;LifeART - Super Anatomy 4;LifeART - Super Anatomy 4;
65;LifeART - Super Anatomy 5;LifeART - Super Anatomy 5;
66;LifeART - Super Anatomy 6;LifeART - Super Anatomy 6;
67;LifeART - Super Anatomy 7;LifeART - Super Anatomy 7;
68;LifeART - Super Anatomy 8;LifeART - Super Anatomy 8;
69;LifeART - Super Anatomy 9;LifeART - Super Anatomy 9;
70;Desenho Digital;Desenho Digital;
71;Flags of the World;Flags of the World;